OtherToolsResult/harm/c432/c432.vcd
$version Generated by VerilatedVcd $end
$timescale 1ps $end

 $scope module top $end
  $var wire  1 # N1 $end
  $var wire  1 B N102 $end
  $var wire  1 C N105 $end
  $var wire  1 D N108 $end
  $var wire  1 & N11 $end
  $var wire  1 E N112 $end
  $var wire  1 F N115 $end
  $var wire  1 ' N14 $end
  $var wire  1 ( N17 $end
  $var wire  1 ) N21 $end
  $var wire  1 H N223 $end
  $var wire  1 * N24 $end
  $var wire  1 + N27 $end
  $var wire  1 , N30 $end
  $var wire  1 I N329 $end
  $var wire  1 - N34 $end
  $var wire  1 . N37 $end
  $var wire  1 J N370 $end
  $var wire  1 $ N4 $end
  $var wire  1 / N40 $end
  $var wire  1 K N421 $end
  $var wire  1 0 N43 $end
  $var wire  1 L N430 $end
  $var wire  1 M N431 $end
  $var wire  1 N N432 $end
  $var wire  1 1 N47 $end
  $var wire  1 2 N50 $end
  $var wire  1 3 N53 $end
  $var wire  1 4 N56 $end
  $var wire  1 5 N60 $end
  $var wire  1 6 N63 $end
  $var wire  1 7 N66 $end
  $var wire  1 8 N69 $end
  $var wire  1 9 N73 $end
  $var wire  1 : N76 $end
  $var wire  1 ; N79 $end
  $var wire  1 % N8 $end
  $var wire  1 < N82 $end
  $var wire  1 = N86 $end
  $var wire  1 > N89 $end
  $var wire  1 ? N92 $end
  $var wire  1 @ N95 $end
  $var wire  1 A N99 $end
  $var wire  1 G clk $end
  $scope module c432 $end
   $var wire  1 O N1 $end
   $var wire  1 n N102 $end
   $var wire  1 o N105 $end
   $var wire  1 p N108 $end
   $var wire  1 R N11 $end
   $var wire  1 q N112 $end
   $var wire  1 r N115 $end
   $var wire  1 { N118 $end
   $var wire  1 | N119 $end
   $var wire  1 } N122 $end
   $var wire  1 ~ N123 $end
   $var wire  1 !! N126 $end
   $var wire  1 "! N127 $end
   $var wire  1 #! N130 $end
   $var wire  1 $! N131 $end
   $var wire  1 %! N134 $end
   $var wire  1 &! N135 $end
   $var wire  1 '! N138 $end
   $var wire  1 (! N139 $end
   $var wire  1 S N14 $end
   $var wire  1 )! N142 $end
   $var wire  1 *! N143 $end
   $var wire  1 +! N146 $end
   $var wire  1 ,! N147 $end
   $var wire  1 -! N150 $end
   $var wire  1 .! N151 $end
   $var wire  1 /! N154 $end
   $var wire  1 0! N157 $end
   $var wire  1 1! N158 $end
   $var wire  1 2! N159 $end
   $var wire  1 3! N162 $end
   $var wire  1 4! N165 $end
   $var wire  1 5! N168 $end
   $var wire  1 T N17 $end
   $var wire  1 6! N171 $end
   $var wire  1 7! N174 $end
   $var wire  1 8! N177 $end
   $var wire  1 9! N180 $end
   $var wire  1 :! N183 $end
   $var wire  1 ;! N184 $end
   $var wire  1 <! N185 $end
   $var wire  1 =! N186 $end
   $var wire  1 >! N187 $end
   $var wire  1 ?! N188 $end
   $var wire  1 @! N189 $end
   $var wire  1 A! N190 $end
   $var wire  1 B! N191 $end
   $var wire  1 C! N192 $end
   $var wire  1 D! N193 $end
   $var wire  1 E! N194 $end
   $var wire  1 F! N195 $end
   $var wire  1 G! N196 $end
   $var wire  1 H! N197 $end
   $var wire  1 I! N198 $end
   $var wire  1 J! N199 $end
   $var wire  1 K! N203 $end
   $var wire  1 U N21 $end
   $var wire  1 L! N213 $end
   $var wire  1 t N223 $end
   $var wire  1 M! N224 $end
   $var wire  1 N! N227 $end
   $var wire  1 O! N230 $end
   $var wire  1 P! N233 $end
   $var wire  1 Q! N236 $end
   $var wire  1 R! N239 $end
   $var wire  1 V N24 $end
   $var wire  1 S! N242 $end
   $var wire  1 T! N243 $end
   $var wire  1 U! N246 $end
   $var wire  1 V! N247 $end
   $var wire  1 W! N250 $end
   $var wire  1 X! N251 $end
   $var wire  1 Y! N254 $end
   $var wire  1 Z! N255 $end
   $var wire  1 [! N256 $end
   $var wire  1 \! N257 $end
   $var wire  1 ]! N258 $end
   $var wire  1 ^! N259 $end
   $var wire  1 _! N260 $end
   $var wire  1 `! N263 $end
   $var wire  1 a! N264 $end
   $var wire  1 b! N267 $end
   $var wire  1 W N27 $end
   $var wire  1 c! N270 $end
   $var wire  1 d! N273 $end
   $var wire  1 e! N276 $end
   $var wire  1 f! N279 $end
   $var wire  1 g! N282 $end
   $var wire  1 h! N285 $end
   $var wire  1 i! N288 $end
   $var wire  1 j! N289 $end
   $var wire  1 k! N290 $end
   $var wire  1 l! N291 $end
   $var wire  1 m! N292 $end
   $var wire  1 n! N293 $end
   $var wire  1 o! N294 $end
   $var wire  1 p! N295 $end
   $var wire  1 q! N296 $end
   $var wire  1 X N30 $end
   $var wire  1 r! N300 $end
   $var wire  1 s! N301 $end
   $var wire  1 t! N302 $end
   $var wire  1 u! N303 $end
   $var wire  1 v! N304 $end
   $var wire  1 w! N305 $end
   $var wire  1 x! N306 $end
   $var wire  1 y! N307 $end
   $var wire  1 z! N308 $end
   $var wire  1 {! N309 $end
   $var wire  1 |! N319 $end
   $var wire  1 u N329 $end
   $var wire  1 }! N330 $end
   $var wire  1 ~! N331 $end
   $var wire  1 !" N332 $end
   $var wire  1 "" N333 $end
   $var wire  1 #" N334 $end
   $var wire  1 $" N335 $end
   $var wire  1 %" N336 $end
   $var wire  1 &" N337 $end
   $var wire  1 '" N338 $end
   $var wire  1 (" N339 $end
   $var wire  1 Y N34 $end
   $var wire  1 )" N340 $end
   $var wire  1 *" N341 $end
   $var wire  1 +" N342 $end
   $var wire  1 ," N343 $end
   $var wire  1 -" N344 $end
   $var wire  1 ." N345 $end
   $var wire  1 /" N346 $end
   $var wire  1 0" N347 $end
   $var wire  1 1" N348 $end
   $var wire  1 2" N349 $end
   $var wire  1 3" N350 $end
   $var wire  1 4" N351 $end
   $var wire  1 5" N352 $end
   $var wire  1 6" N353 $end
   $var wire  1 7" N354 $end
   $var wire  1 8" N355 $end
   $var wire  1 9" N356 $end
   $var wire  1 :" N357 $end
   $var wire  1 ;" N360 $end
   $var wire  1 Z N37 $end
   $var wire  1 v N370 $end
   $var wire  1 <" N371 $end
   $var wire  1 =" N372 $end
   $var wire  1 >" N373 $end
   $var wire  1 ?" N374 $end
   $var wire  1 @" N375 $end
   $var wire  1 A" N376 $end
   $var wire  1 B" N377 $end
   $var wire  1 C" N378 $end
   $var wire  1 D" N379 $end
   $var wire  1 E" N380 $end
   $var wire  1 F" N381 $end
   $var wire  1 G" N386 $end
   $var wire  1 H" N393 $end
   $var wire  1 I" N399 $end
   $var wire  1 P N4 $end
   $var wire  1 [ N40 $end
   $var wire  1 J" N404 $end
   $var wire  1 K" N407 $end
   $var wire  1 L" N411 $end
   $var wire  1 M" N414 $end
   $var wire  1 N" N415 $end
   $var wire  1 O" N416 $end
   $var wire  1 P" N417 $end
   $var wire  1 Q" N418 $end
   $var wire  1 R" N419 $end
   $var wire  1 S" N420 $end
   $var wire  1 w N421 $end
   $var wire  1 T" N422 $end
   $var wire  1 U" N425 $end
   $var wire  1 V" N428 $end
   $var wire  1 W" N429 $end
   $var wire  1 \ N43 $end
   $var wire  1 x N430 $end
   $var wire  1 y N431 $end
   $var wire  1 z N432 $end
   $var wire  1 ] N47 $end
   $var wire  1 ^ N50 $end
   $var wire  1 _ N53 $end
   $var wire  1 ` N56 $end
   $var wire  1 a N60 $end
   $var wire  1 b N63 $end
   $var wire  1 c N66 $end
   $var wire  1 d N69 $end
   $var wire  1 e N73 $end
   $var wire  1 f N76 $end
   $var wire  1 g N79 $end
   $var wire  1 Q N8 $end
   $var wire  1 h N82 $end
   $var wire  1 i N86 $end
   $var wire  1 j N89 $end
   $var wire  1 k N92 $end
   $var wire  1 l N95 $end
   $var wire  1 m N99 $end
   $var wire  1 s clk $end
  $upscope $end
 $upscope $end
$enddefinitions $end


#0
0#
0$
1%
0&
0'
0(
0)
0*
1+
0,
0-
0.
0/
00
01
02
13
04
15
16
07
08
19
1:
1;
0<
0=
1>
0?
0@
1A
0B
1C
1D
1E
0F
1G
1H
0I
1J
1K
0L
0M
0N
0O
0P
1Q
0R
0S
0T
0U
0V
1W
0X
0Y
0Z
0[
0\
0]
0^
1_
0`
1a
1b
0c
0d
1e
1f
1g
0h
0i
1j
0k
0l
1m
0n
1o
1p
1q
0r
1s
1t
0u
1v
1w
0x
0y
0z
1{
1|
1}
1~
1!!
1"!
1#!
1$!
1%!
1&!
0'!
1(!
0)!
1*!
0+!
1,!
1-!
0.!
1/!
00!
01!
12!
13!
14!
15!
16!
17!
18!
09!
0:!
0;!
0<!
0=!
0>!
0?!
0@!
0A!
0B!
0C!
0D!
0E!
0F!
0G!
0H!
1I!
0J!
1K!
1L!
0M!
0N!
0O!
0P!
0Q!
0R!
1S!
0T!
1U!
0V!
1W!
1X!
1Y!
1Z!
0[!
0\!
0]!
1^!
1_!
1`!
1a!
1b!
1c!
1d!
1e!
1f!
1g!
1h!
1i!
1j!
1k!
1l!
1m!
1n!
1o!
0p!
1q!
0r!
0s!
0t!
0u!
0v!
0w!
0x!
0y!
1z!
0{!
0|!
1}!
1~!
1!"
1""
1#"
1$"
1%"
1&"
1'"
1("
1)"
1*"
1+"
1,"
1-"
1."
1/"
10"
11"
12"
13"
14"
15"
16"
17"
18"
09"
0:"
1;"
1<"
0="
1>"
0?"
1@"
0A"
1B"
0C"
1D"
1E"
1F"
1G"
1H"
1I"
1J"
1K"
1L"
0M"
0N"
0O"
0P"
0Q"
0R"
0S"
1T"
1U"
1V"
1W"
#1000
0G
0s
#2000
1#
1'
1(
0+
1-
11
12
14
05
17
0:
0;
1?
1@
0A
1B
0C
0D
0E
1F
1G
1I
1L
1M
1N
1O
1S
1T
0W
1Y
1]
1^
1`
0a
1c
0f
0g
1k
1l
0m
1n
0o
0p
0q
1r
1s
1u
1x
1y
1z
0{
0~
0%!
0&!
1)!
0,!
0-!
1.!
02!
19!
1:!
1;!
1@!
1F!
1G!
0I!
1N!
0S!
0X!
0Z!
1\!
0^!
0a!
0i!
1p!
0q!
1s!
0z!
1{!
1|!
0}!
0!"
0""
0#"
0$"
0&"
0'"
0("
0)"
0*"
0,"
0-"
02"
19"
0<"
1="
0@"
1A"
0B"
1C"
0D"
0F"
1M"
#3000
0G
0s
#4000
1$
0%
0(
1)
1*
1+
10
04
07
09
1<
1A
0B
1D
1E
0F
1G
0J
0L
0N
1P
0Q
0T
1U
1V
1W
1\
0`
0c
0e
1h
1m
0n
1p
1q
0r
1s
0v
0x
0z
0|
1~
0!!
0$!
1&!
0*!
1-!
0.!
10!
12!
04!
07!
09!
0:!
0;!
0@!
1D!
0F!
1I!
0N!
1P!
1T!
0W!
1X!
1^!
1a!
0f!
1i!
0p!
0s!
1z!
0~!
1#"
0%"
1("
1-"
0/"
00"
12"
1:"
0;"
1<"
1?"
1@"
1B"
1D"
1F"
0K"
1R"
0V"
#5000
0G
0s
#6000
1&
0'
1(
0)
0*
0-
1.
00
03
15
0>
0?
0A
1B
1C
0D
0E
1F
1G
1J
1R
0S
1T
0U
0V
0Y
1Z
0\
0_
1a
0j
0k
0m
1n
1o
0p
0q
1r
1s
1v
0}
0~
1!!
0#!
1$!
1+!
0-!
1.!
11!
14!
08!
19!
1:!
1E!
1F!
0G!
0I!
0P!
0U!
1V!
1W!
0X!
0Y!
1]!
0^!
0g!
0n!
1p!
1x!
0z!
1%"
1'"
1*"
0+"
1/"
10"
07"
0:"
1;"
0="
0C"
0D"
#7000
0G
0s
#8000
1%
0(
0.
01
02
06
18
19
1>
1?
0@
0B
1D
1E
1G
0J
1Q
0T
0Z
0]
0^
0b
1d
1e
1j
1k
0l
0n
1p
1q
1s
0v
1~
1#!
1%!
1'!
0(!
0+!
1,!
1-!
0.!
00!
06!
18!
09!
0:!
1C!
0E!
0F!
1R!
0V!
1X!
1Y!
1Z!
1[!
0]!
1^!
1g!
0m!
1n!
1w!
0x!
0#"
1)"
0*"
0-"
00"
17"
1:"
0;"
1="
1C"
1D"
#9000
0G
0s
#10000
0$
0%
0&
1'
1(
0+
1-
1/
11
12
08
09
1=
0?
1@
0D
1G
1J
1L
1N
0P
0Q
0R
1S
1T
0W
1Y
1[
1]
1^
0d
0e
1i
0k
1l
0p
1s
1v
1x
1z
1|
1}
0~
0%!
1(!
0,!
1.!
01!
02!
16!
19!
1:!
1;!
0C!
0D!
1E!
1F!
1N!
0R!
1U!
0X!
0Z!
0a!
1f!
0i!
1m!
0n!
1s!
0w!
1x!
1~!
1#"
0'"
0("
0)"
1-"
0."
02"
0:"
1;"
0<"
0>"
0C"
0D"
0F"
1K"
0R"
1V"
#11000
0G
0s
#12000
1$
1%
1&
0'
0(
1)
0/
10
01
02
05
18
0<
1?
0@
1A
1D
0E
1G
0M
1P
1Q
1R
0S
0T
1U
0[
1\
0]
0^
0a
1d
0h
1k
0l
1m
1p
0q
1s
0y
0|
0}
1~
0$!
1%!
0(!
1*!
1,!
0.!
11!
12!
04!
06!
17!
09!
0:!
0;!
1>!
1?!
1B!
1C!
0E!
0F!
1H!
0N!
1P!
1R!
0T!
0U!
1X!
1Z!
1a!
0c!
0e!
0h!
1i!
0k!
0m!
1n!
0s!
1u!
1w!
0x!
0~!
1""
0#"
0%"
1&"
1)"
1+"
1,"
0/"
10"
12"
04"
06"
1<"
1>"
0B"
1F"
0H"
0J"
1P"
1Q"
0T"
#13000
0G
0s
#14000
0%
0&
1'
0)
1+
11
13
14
16
08
19
0?
1@
0A
1B
0F
1G
0N
0Q
0R
1S
0U
1W
1]
1_
1`
1b
0d
1e
0k
1l
0m
1n
0r
1s
0z
1}
0&!
0'!
1(!
0,!
0-!
10!
01!
05!
16!
19!
0>!
0?!
1@!
1A!
0B!
0C!
1F!
1I!
1Q!
0R!
1U!
0X!
0[!
0^!
1c!
0d!
1e!
1h!
1k!
0l!
1m!
0u!
1v!
0w!
0""
1#"
1$"
1%"
0&"
0)"
0,"
0-"
1/"
14"
05"
16"
0<"
0="
0?"
1B"
1D"
1H"
0I"
1J"
0P"
0Q"
1T"
#15000
0G
0s
#16000
1)
1,
0-
00
01
12
03
06
17
18
09
1:
0=
1?
0@
0B
0C
1G
1M
1U
1X
0Y
0\
0]
1^
0_
0b
1c
1d
0e
1f
0i
1k
0l
0n
0o
1s
1y
0"!
1$!
0%!
1'!
0(!
0)!
1,!
1-!
03!
14!
15!
06!
09!
1<!
1=!
0A!
1B!
1C!
0F!
1O!
0P!
0Q!
1R!
1X!
0Z!
1[!
0\!
1^!
0b!
1d!
0e!
0h!
0j!
1l!
0m!
0p!
1t!
0v!
1w!
1z!
1!"
0$"
0%"
1&"
1'"
1)"
1,"
1-"
1."
03"
15"
06"
09"
1?"
0@"
0B"
1C"
0G"
1I"
0J"
0M"
1Q"
#17000
0G
0s
#18000
1&
0'
0,
1.
1/
10
02
04
15
16
08
19
1;
1<
0>
1A
1E
1F
1G
0I
0J
0L
0M
1R
0S
0X
1Z
1[
1\
0^
0`
1a
1b
0d
1e
1g
1h
0j
1m
1q
1r
1s
0u
0v
0x
0y
0}
1"!
0#!
0$!
1%!
1&!
0'!
1(!
0*!
1+!
11!
13!
16!
0<!
0=!
1>!
1?!
0@!
0B!
0C!
1D!
0H!
0I!
0O!
0R!
0U!
0Y!
1Z!
0[!
1]!
1b!
1e!
1h!
1j!
1m!
1p!
1q!
0t!
0w!
0z!
0{!
0|!
1}!
1~!
1""
1$"
1%"
1("
1*"
13"
16"
19"
1:"
0;"
1<"
1="
1@"
1B"
1G"
1J"
0Q"
