RunTime/goldmine.out/ibex_controller/ibex_controller.vcd
$date
	Tue Oct  1 11:46:03 2024
$end
$version
	Icarus Verilog
$end
$timescale
	1ps
$end
$scope module ibex_controller_bench $end
$scope module ibex_controller_ $end
$var wire 1 ! branch_set_i $end
$var wire 1 " clk_i $end
$var wire 1 # csr_meip_i $end
$var wire 15 $ csr_mfip_i [14:0] $end
$var wire 1 % csr_msip_i $end
$var wire 1 & csr_mstatus_mie_i $end
$var wire 1 ' csr_mstatus_tw_i $end
$var wire 1 ( csr_mtip_i $end
$var wire 1 ) csr_pipe_flush $end
$var wire 1 * csr_pipe_flush_i $end
$var wire 1 + debug_ebreakm_i $end
$var wire 1 , debug_ebreaku_i $end
$var wire 1 - debug_mode_o $end
$var wire 1 . debug_req_i $end
$var wire 1 / debug_single_step_i $end
$var wire 1 0 dret_insn $end
$var wire 1 1 dret_insn_i $end
$var wire 1 2 ebrk_insn $end
$var wire 1 3 ebrk_insn_i $end
$var wire 1 4 ecall_insn $end
$var wire 1 5 ecall_insn_i $end
$var wire 1 6 enter_debug_mode $end
$var wire 1 7 exc_req_d $end
$var wire 1 8 exc_req_lsu $end
$var wire 1 9 fetch_enable_i $end
$var wire 1 : handle_irq $end
$var wire 1 ; id_in_ready_o $end
$var wire 1 < illegal_dret $end
$var wire 1 = illegal_insn_d $end
$var wire 1 > illegal_insn_i $end
$var wire 1 ? illegal_umode $end
$var wire 16 @ instr_compressed_i [15:0] $end
$var wire 1 A instr_fetch_err $end
$var wire 1 B instr_fetch_err_i $end
$var wire 32 C instr_i [31:0] $end
$var wire 1 D instr_is_compressed_i $end
$var wire 1 E instr_valid_clear_o $end
$var wire 1 F instr_valid_i $end
$var wire 1 G irq_nm_i $end
$var wire 1 H irq_pending_i $end
$var wire 1 I jump_set_i $end
$var wire 1 J load_err_d $end
$var wire 1 K load_err_i $end
$var wire 32 L lsu_addr_last_i [31:0] $end
$var wire 1 M mret_insn $end
$var wire 1 N mret_insn_i $end
$var wire 32 O pc_id_i [31:0] $end
$var wire 2 P priv_mode_i [1:0] $end
$var wire 1 Q rst_ni $end
$var wire 1 R special_req $end
$var wire 1 S stall $end
$var wire 1 T stall_branch_i $end
$var wire 1 U stall_jump_i $end
$var wire 1 V stall_lsu_i $end
$var wire 1 W stall_multdiv_i $end
$var wire 1 X store_err_d $end
$var wire 1 Y store_err_i $end
$var wire 1 Z unused_csr_mtip $end
$var wire 1 [ wfi_insn $end
$var wire 1 \ wfi_insn_i $end
$var wire 1 ] ebreak_into_debug $end
$var reg 32 ^ csr_mtval_o [31:0] $end
$var reg 1 _ csr_restore_dret_id_o $end
$var reg 1 ` csr_restore_mret_id_o $end
$var reg 1 a csr_save_cause_o $end
$var reg 1 b csr_save_id_o $end
$var reg 1 c csr_save_if_o $end
$var reg 1 d ctrl_busy_o $end
$var reg 4 e ctrl_fsm_cs [3:0] $end
$var reg 4 f ctrl_fsm_ns [3:0] $end
$var reg 3 g debug_cause_o [2:0] $end
$var reg 1 h debug_csr_save_o $end
$var reg 1 i debug_mode_d $end
$var reg 1 j debug_mode_q $end
$var reg 6 k exc_cause_o [5:0] $end
$var reg 2 l exc_pc_mux_o [1:0] $end
$var reg 1 m exc_req_q $end
$var reg 1 n flush_id $end
$var reg 1 o halt_if $end
$var reg 1 p illegal_insn_q $end
$var reg 1 q instr_req_o $end
$var reg 1 r load_err_q $end
$var reg 4 s mfip_id [3:0] $end
$var reg 1 t nmi_mode_d $end
$var reg 1 u nmi_mode_q $end
$var reg 3 v pc_mux_o [2:0] $end
$var reg 1 w pc_set_o $end
$var reg 1 x perf_jump_o $end
$var reg 1 y perf_tbranch_o $end
$var reg 1 z store_err_q $end
$scope function sv2v_cast_89EA8 $end
$var reg 6 { inp [5:0] $end
$var reg 6 | sv2v_cast_89EA8 [5:0] $end
$upscope $end
$scope begin gen_mfip_id $end
$upscope $end
$scope begin update_regs $end
$upscope $end
$upscope $end
$upscope $end
$enddefinitions $end
#0
$dumpvars
bx |
bx {
0z
0y
0x
1w
b0 v
0u
0t
bx s
0r
0q
0p
0o
0n
0m
b1 l
b0 k
0j
0i
0h
b1 g
b0 f
b0 e
1d
0c
0b
0a
0`
0_
b0 ^
x]
x\
x[
xZ
xY
xX
xW
xV
xU
xT
xS
xR
0Q
bx P
bx O
xN
xM
bx L
xK
xJ
xI
xH
xG
xF
xE
xD
bx C
xB
xA
bx @
x?
x>
x=
x<
x;
x:
x9
x8
x7
x6
x5
x4
x3
x2
x1
x0
x/
x.
0-
x,
x+
x*
x)
x(
x'
x&
x%
bx $
x#
1"
x!
$end
#24000
17
0E
0;
1=
0?
0:
16
1R
0]
0<
b1101 s
18
1S
04
0M
00
0[
02
0A
0)
b1 f
1w
0q
1.
0J
0K
b10000100100000 $
0&
05
1X
1Y
1'
b1 P
1,
0T
1N
0!
0+
0G
b1000111111011001101101110001111 C
0B
1U
1>
0#
1D
b10010011000110 @
1\
0/
1I
13
0V
b110110101111100110100001101 O
11
0F
1%
1*
1W
b10110001111100000101011001100011 L
1Z
1(
19
0H
#25000
0"
#26000
1Q
#50000
b100 f
1w
1q
1p
1m
1z
b1 e
1"
#74000
07
0=
b1110 s
b100 f
1w
1J
1K
b100101100010101 $
1T
0N
b1011011000000100110010110110110 C
1B
0>
b110000110001010 @
0\
0I
03
1V
b11100111110001010111001011001111 O
0%
b10101001101001111101011001010011 L
#75000
0"
#100000
1o
b1000 f
0w
0p
0m
1r
b100 e
1"
#124000
17
1E
1n
1:
1=
06
b1101 s
1]
1o
b111 f
0.
0J
0K
b11100010000110 $
b11 P
0,
1N
1!
1+
1G
b10111111000001010000000001111110 C
0B
1>
0D
b111111100001100 @
1/
1I
b1000100110111100011011110001001 O
1%
0W
b1000111101110011010000110001111 L
09
#125000
0"
#150000
0E
b101 f
1t
b111111 k
1a
1c
1w
b10 v
0n
0o
1p
1m
0r
b111 e
1"
#174000
b1011 s
0]
1t
b101 f
b111111 k
1w
b10 v
1a
1c
1J
1K
b101000111000 $
0'
b10 P
1,
0N
0!
0+
b10101000010010000101100101010 C
0U
1#
1D
b1011011001100101 @
0V
b11100101100110110011011011001011 O
1W
b11010001100010111011010010100011 L
#175000
0"
#200000
0:
b0 k
0w
b0 v
0a
0c
1r
1u
b101 e
1"
#224000
1=
1?
b1100 s
08
1M
1[
12
1)
1A
1o
b110 f
0J
0K
b1100110111010 $
1&
0X
0Y
1'
0,
0T
1N
1!
0G
b10010111010111001001110000101110 C
1B
1U
0>
0#
0D
b11101101001 @
1\
0/
0I
13
b1100101001110110100100111001010 O
01
1F
b10101100101101111100101001011001 L
0Z
0(
19
#225000
0"
#250000
1E
b1100101001110110100100111001010 ^
b1 k
1a
1b
b0 l
b10 v
1w
b101 f
1n
1o
0=
07
0z
0r
b110 e
1"
#274000
16
18
b111 s
0?
1]
0M
0[
02
0A
0)
1n
1o
b1000 f
b10 k
b0 l
1w
b10 v
b10101000011000111001011001010000 ^
1a
1b
1.
1J
1K
b10101000 $
0&
b11 P
1T
1+
1G
b10101000011000111001011001010000 C
0B
1>
1#
b10101101111001 @
1/
03
b1101110010111110000111111011100 O
11
0F
0%
0*
0W
b11011100001110110000100110111 L
1Z
1(
09
1H
#275000
0"
#300000
17
b101 f
1i
b100 g
1h
1c
1n
0o
b0 k
b10 l
1w
b10 v
b0 ^
1a
0b
1=
0p
0m
1r
b1000 e
1"
#324000
07
1;
0=
b1100 s
0S
0]
1i
b100 g
1h
1n
b101 f
b10 l
1w
b10 v
1a
1c
b1111000001011 $
1&
1X
1Y
b10 P
0T
0!
0+
0G
b11000011001100111001000010000110 C
1B
0U
0>
b1001110110111010 @
0\
1I
13
b1100100011001001110001111001000 O
1*
b10101001011111011010100101010 L
0H
#325000
0"
#350000
06
b1 g
0h
0n
b1 l
0w
b0 v
0a
0c
1z
1-
1j
b101 e
1"
#374000
17
0E
0;
1=
b1011 s
1S
0.
b111100101011 $
15
0'
1T
0N
1+
b101001111011111110100101010011 C
0B
1U
1>
0#
1D
b1001110100011000 @
0I
03
1V
b10010110100001001110000000101101 O
01
1%
0*
b110101110011011011111101101011 L
19
#375000
0"
#400000
1p
1m
1"
#424000
b1101 s
08
1]
0J
0K
b10101001101111 $
0&
05
0X
0Y
b11 P
1,
0T
1!
1G
b1101101111001011011101111011011 C
1B
1#
0D
b10001000100111 @
1\
1I
13
b11011000101011001110001010110001 O
0%
b10000010001000100011101000000100 L
1H
#425000
0"
#450000
0z
0r
1"
#474000
b1100 s
0]
14
1M
1[
1A
1o
b110 f
b1001010100000 $
15
0,
1T
1N
0!
0+
b10101101011001111110001001011010 C
0#
1D
b1110111001000011 @
03
0V
b11110000111001000011100111100 O
1F
1W
b1111011000011011010100111110110 L
0Z
0(
09
0H
#475000
0"
#500000
1E
b11110000111001000011100111100 ^
b1 k
1a
1b
b11 l
b10 v
1w
b101 f
1n
1o
0=
07
b110 e
1"
#524000
0?
0M
0A
0[
12
10
1)
1n
1o
b101 f
b10 k
b11 l
1w
b10 v
b100011011010101111110101000110 ^
1a
1b
b1111000100101 $
b0 P
0T
0N
1!
0G
b100011011010101111110101000110 C
0B
0U
0D
b111100011101101 @
0\
0I
13
1V
b1110001110000010010100111100011 O
11
1%
1*
0W
b10111100110011000100001001111001 L
1Z
1(
19
1H
#525000
0"
#550000
0E
b110 f
0n
1o
b0 k
b1 l
0w
b0 v
b0 ^
0a
0b
1=
17
0p
0m
b101 e
1"
#574000
17
1?
1=
b1110 s
04
18
1M
1[
02
00
1o
b110 f
1J
1K
b110111110010011 $
05
1X
1Y
1'
b10 P
1T
1N
0!
1+
1G
b1100100111000010110010111001001 C
1U
0>
1#
1D
b1111111111101000 @
1\
0/
1I
03
0V
b1101000010100011110010111010000 O
01
0%
b100101111100100000001101001011 L
09
#575000
0"
#600000
1E
b1111111111101000 ^
b10 k
1a
1b
b11 l
b10 v
1w
b101 f
1n
1o
0=
07
1p
1m
1z
1r
b110 e
1"
#624000
0?
1]
0M
0[
0)
1n
1o
b101 f
b10 k
b11 l
1w
b10 v
b111110000000000 ^
1a
1b
1.
b101101000110000 $
15
0X
0Y
0'
b11 P
0T
1!
0G
b1100111110101110011010111001111 C
1B
b111110000000000 @
13
b11101000001010111001011011010000 O
11
0F
1W
b1000010001001101010100110000100 L
0Z
0(
19
0H
#625000
0"
#650000
0E
0n
0o
b0 k
b1 l
0w
b0 v
b0 ^
0a
0b
0p
0m
0z
b101 e
1"
#674000
17
1=
b111 s
0]
b10101010 $
05
1X
1Y
1'
b10 P
1,
1T
0!
0+
1G
b110000010011100100110101100000 C
0B
1>
0D
b1010111111111000 @
1/
0I
b11100010111011001101101011000101 O
01
1%
b1110100101000011010110111101001 L
#675000
0"
#700000
1p
1m
1z
1"
#724000
0=
b1101 s
08
1]
1M
1[
12
1)
1o
b110 f
0.
0J
0K
b11110110111101 $
0X
0Y
b11 P
1!
1+
b10111110110110100100010001111101 C
0U
0>
b1000010011001 @
1I
1V
b1011100110100100000110110111001 O
1F
b11110011001100100110100111100 L
09
1H
#725000
0"
#750000
0a
0b
b11 l
b10 v
0w
b1001 f
0n
1o
07
0p
0z
0r
b110 e
1"
#774000
18
0?
0]
0M
0[
0)
0a
0b
0w
0n
1o
b1001 f
b11 l
b10 v
1.
b10101111110101 $
1X
1Y
b0 P
0,
0T
0N
0G
b10011100111111000111101000111001 C
1U
1D
b1101110001011001 @
0\
0/
0I
0V
b11011101110100010100011010111011 O
0*
0W
b10111100001111111000010001111000 L
1Z
1(
19
0H
#775000
0"
#800000
1E
b101 f
1w
1n
0o
b10 l
b10 v
17
0m
1z
b1001 e
1"
#824000
0R
07
08
02
1n
b101 f
b10 l
1w
b10 v
b10010101011010 $
0X
0Y
0'
b1 P
1,
1T
1N
1G
b100011010000000000101101000110 C
0U
0#
0D
b1001010010100 @
1\
1/
1I
1V
b101000011101100110100101010000 O
0F
0%
1*
1W
b10111000011111000001000001110000 L
#825000
0"
#850000
0E
0n
b1 l
0w
b0 v
0z
b101 e
1"
#874000
1R
18
b1110 s
1]
0.
1J
1K
b100101100011011 $
1&
15
b11 P
0N
0!
0G
b1010101000101011101000110101010 C
1B
b110101111000100 @
0\
0I
b11010010011111110000101010100100 O
1%
b1101100011010100110110111011000 L
09
1H
#875000
0"
#900000
1r
1"
#924000
17
1=
1.
b111010100011010 $
0&
05
1X
1Y
1N
1!
1G
b11101110011100000110100011011100 C
0B
1U
1>
b110010111000000 @
0/
0V
b11011001101101000101100110110 O
11
0%
0W
b10001101100101001101001000011011 L
19
#925000
0"
#950000
1p
1m
1z
1"
#974000
0R
07
0=
08
0.
0J
0K
b100001001101011 $
1&
0X
0Y
b0 P
0G
b11111111001000000010111011111110 C
1B
0U
0>
b11100001110100 @
1I
03
1V
b11011100100100000010100110111 O
0*
b10101111010100001100000101 L
0H
#975000
0"
#1000000
0p
0m
0z
0r
1"
#1024000
17
1=
1R
0]
b1011 s
18
b110110010100 $
0&
15
1X
1Y
b10 P
0N
0+
1G
b101111111011110011110101011111 C
0B
1U
1>
1D
b1110010100000000 @
0I
b101100000011000101010101011000 O
1W
b11011100100110010111010010111001 L
1H
#1025000
0"
#1050000
1p
1m
1z
1"
#1074000
0=
b1110 s
08
10
12
1A
1)
1o
b110 f
1.
b111000011001000 $
1&
05
0X
0Y
b1 P
0,
0!
0G
b10001101011111010111001000011010 C
1B
0>
1#
0D
b10001011000111 @
1I
13
0V
b11100010000100001011100111000 O
1F
1%
1*
0W
b11101110010011101110011011011100 L
#1075000
0"
#1100000
1E
b11100010000100001011100111000 ^
b1 k
1a
1b
b11 l
b10 v
1w
b101 f
1n
1o
07
0p
0z
b110 e
1"
#1124000
1?
0E
18
0A
1[
0n
1o
b1001 f
b0 k
b11 l
0w
b10 v
b0 ^
0a
0b
1J
1K
b100101110111111 $
0&
1X
1Y
1'
b10 P
0T
1!
1+
b1110100110111000110100111101001 C
0B
1D
b111001101010101 @
1\
1/
0I
b10011000010011011010011000110000 O
0%
1W
b1000001101011101101010110000011 L
0H
#1125000
0"
#1150000
1E
b101 f
1w
1n
0o
b10 l
b10 v
1=
17
0m
1z
1r
b1001 e
1"
#1174000
07
0=
b1101 s
0?
00
0[
02
0)
1n
b101 f
b10 l
1w
b10 v
0J
0K
b11010001111110 $
1&
b11 P
1,
1N
0!
0+
1G
b11111101111010110111110011111011 C
0#
0D
b111110101010 @
0/
b11010111111000110001111010101111 O
01
0F
1%
0*
0W
b1100011001100100011101111000110 L
0Z
0(
1H
#1175000
0"
#1200000
0E
0n
b1 l
0w
b0 v
0r
b101 e
1"
#1224000
17
1=
1R
b1011 s
08
1]
14
10
1[
1)
1o
b110 f
b111110110100 $
15
0X
0Y
0'
0,
1T
0N
1+
0G
b11111111011100111100101011111110 C
0U
1>
1D
b1111000011000100 @
03
1V
b1110011001011000101111111100110 O
11
1F
1*
1W
b1000001101101011101010110000011 L
#1225000
0"
#1250000
1E
b1111000011000100 ^
b10 k
1a
1b
b11 l
b10 v
1w
b101 f
1n
1o
0=
07
1p
1m
0z
b110 e
1"
#1274000
18
b1110 s
04
0]
1A
12
00
1n
1o
b101 f
b1 k
b11 l
1w
b10 v
b11111001011001001111111011110010 ^
1a
1b
0.
1J
1K
b111001011101011 $
05
b0 P
0T
0+
1G
b10001001000001000010111000010010 C
1B
1#
b1101100011111010 @
1/
13
b11111001011001001111111011110010 O
01
0%
b11101111101100001111100111011 L
1Z
1(
09
#1275000
0"
#1300000
0E
b110 f
0n
1o
b0 k
b1 l
0w
b0 v
b0 ^
0a
0b
1=
17
0p
0m
1r
b101 e
1"
#1324000
08
b1101 s
14
1]
0A
0[
1o
b110 f
0J
0K
b11101001001001 $
0&
15
1'
b11 P
1,
1T
1!
1+
0G
b1101110100011010100010111011101 C
0B
1U
0#
b11111100011010 @
0\
0/
b10100101001101100101110001001010 O
1%
0W
b11000101110010110101010010001011 L
0H
#1325000
0"
#1350000
1E
b11111100011010 ^
b10 k
1a
1b
b11 l
b10 v
1w
b101 f
1n
1o
0=
07
1p
1m
0r
b110 e
1"
#1374000
1R
b1010 s
04
1M
0]
1[
02
10
0)
1n
1o
b101 f
b10 k
b11 l
1w
b10 v
b1000001101111010110011110000011 ^
1a
1b
b10100010000 $
1&
05
0,
0T
1N
0!
0+
1G
b1000001101111010110011110000011 C
1#
0D
b110000110110100 @
1\
1/
1I
03
b1001010110100111001010110010101 O
11
0%
0*
1W
b10111001001010111000100101110 L
#1375000
0"
#1400000
17
0E
b110 f
0n
1o
b0 k
b1 l
0w
b0 v
b0 ^
0a
0b
1=
0p
0m
b101 e
1"
#1424000
0=
b1101 s
18
0M
1]
0[
12
00
1)
1o
b110 f
1.
b10111110010111 $
1X
1Y
1,
1T
0N
1+
0G
b11010101000111001011010010101010 C
0>
b11101010011011 @
0\
0I
13
0V
b1011011110101011000001110110111 O
01
1*
b10000110110010000011001000001101 L
19
1H
#1425000
0"
#1450000
0a
0b
b11 l
b10 v
0w
b1001 f
0n
1o
07
1m
1z
b110 e
1"
#1474000
1E
b1000 k
b1110 s
14
08
0]
1[
1a
1b
1w
1n
1o
b101 f
b11 l
b10 v
0.
b101000100000000 $
0&
15
0X
0Y
0'
b1 P
0+
1G
b100100111010010000011101001001 C
0U
1D
b1000100000001111 @
1\
0/
1I
1V
b10011100110101101100001000111001 O
b100110110001110001001101001101 L
0H
#1475000
0"
#1500000
0E
b110 f
0n
1o
b0 k
b1 l
0w
b0 v
0a
0b
17
0m
0z
b101 e
1"
#1524000
17
1=
18
04
0[
02
0)
0o
b101 f
1.
1J
1K
b100100001010001 $
1&
05
1X
1Y
b10 P
0,
b1000001101100011111110110000011 C
1B
1U
1>
0#
0D
b1100011010000000 @
0\
1/
b11101000110011111011000011010001 O
0F
0*
0W
b1101000110000010100111111010001 L
09
#1525000
0"
#1550000
1p
1m
1z
1r
1"
#1574000
07
0=
1]
b1101 s
0.
b11000000110010 $
0&
b0 P
1,
1!
1+
b10011000101101001110111000110001 C
0B
0>
1#
b10111101110010 @
0V
b11110001100100110011100111100 O
1*
1W
b10010111110111011110001000101111 L
0Z
0(
#1575000
0"
#1600000
0p
0m
1"
#1624000
17
b1110 s
1M
12
1)
1A
1o
b110 f
1.
0J
0K
b110100000001001 $
1&
1'
b11 P
0,
0T
1N
b10110101111110001111101001101011 C
1B
0#
b1100000101100100 @
0/
0I
1V
b10001110001101100010100100011 O
1F
b11000110100001111000101010001101 L
19
#1625000
0"
#1650000
1E
b10001110001101100010100100011 ^
b1 k
1a
1b
b11 l
b10 v
1w
b101 f
1n
1o
07
1m
0r
b110 e
1"
#1674000
0S
b1011 s
1?
0]
0A
02
10
1n
1o
b101 f
b111 k
b11 l
1w
b10 v
b10101011111010001100000001010111 ^
1a
1b
1J
1K
b101010101001 $
0X
0Y
0'
b10 P
1,
0+
b1011100001010101111110110111000 C
0B
0U
1>
b11010001001100 @
1I
03
0V
b100011010001100110001101000110 O
11
0W
b10101011111010001100000001010111 L
1Z
1(
#1675000
0"
#1700000
17
0E
b110 f
0n
1o
b0 k
b1 l
0w
b0 v
b0 ^
0a
0b
1=
0m
0z
1r
b101 e
1"
#1724000
0?
b1110 s
1S
0M
00
0)
0o
b101 f
0.
b111000001001011 $
0&
15
1'
0,
1T
0!
b10001110001110011001000000011100 C
1B
1U
b100110001000 @
1\
1/
13
b11001111101110001001111010011111 O
0F
1%
1W
b10101101001001111100010001011010 L
09
#1725000
0"
#1750000
1p
1m
1"
#1774000
07
0=
b1101 s
1]
1.
0J
0K
b11100100001011 $
1&
05
1X
1Y
b11 P
0N
1!
1+
0G
b11100110101100010001000011001101 C
0U
0>
1D
b111100111001011 @
0\
0/
03
b1011101100011101001010110111011 O
01
0*
0W
b1110011000101001000100011100 L
19
1H
#1775000
0"
#1800000
0p
0m
1z
0r
1"
#1824000
1=
17
b1110 s
0]
12
1A
1)
1o
b110 f
0.
b100000010100000 $
0'
b10 P
1,
0T
0!
b1011000110101111001110110110001 C
1U
1>
b1000000011111011 @
13
1V
b1111110011111110010000111111100 O
1F
1*
1W
b111011010101101111100001110 L
0Z
0(
0H
#1825000
0"
#1850000
1E
b1111110011111110010000111111100 ^
b1 k
1a
1b
b11 l
b10 v
1w
b101 f
1n
1o
0=
07
1p
1m
b110 e
1"
#1874000
1?
1]
b1101 s
14
0A
1[
02
10
1n
1o
b101 f
b10 k
b11 l
1w
b10 v
b110111100010010000110101101111 ^
1a
1b
1J
1K
b10000110001010 $
0&
15
0X
0Y
1'
b0 P
1T
1!
b110111100010010000110101101111 C
0B
0>
1#
0D
b1101110101110001 @
1\
03
0V
b10000011001000101101111000000110 O
11
0%
b111000010000100010110101110000 L
09
1H
#1875000
0"
#1900000
0E
b110 f
0n
1o
b0 k
b1 l
0w
b0 v
b0 ^
0a
0b
1=
17
0p
0m
0z
1r
b101 e
1"
#1924000
0?
0]
04
00
0[
0)
0o
b101 f
1.
b11011101101000 $
05
1X
1Y
b1 P
0T
0!
0+
b11101110100110000000100111011 C
1B
1>
b100110100001 @
0\
13
1V
b1111100010100000010101111111000 O
01
0F
0*
0W
b10111001010101011011011001110010 L
1Z
1(
0H
#1925000
0"
#1950000
1p
1m
1z
1"
#1974000
1]
b1100 s
0.
b1110110110101 $
1&
0X
0Y
0'
b0 P
1N
1+
1G
b10101010100001101000100101010 C
0B
1D
b100000010001111 @
0I
03
0V
b1100110001101110001111111001100 O
1W
b11000011011110100111100010000110 L
1H
#1975000
0"
#2000000
0z
1"
#2024000
1=
1?
0]
08
b1101 s
1M
10
1[
12
1A
1o
b110 f
1.
0J
0K
b11001110011101 $
0&
b1 P
0,
1T
1!
0+
b10110010001111001101100101100 C
1B
0>
0#
0D
b111111100011011 @
1\
1/
1I
13
b111001001111011001101101110010 O
11
1F
0W
b10101011101010010010111001010111 L
0Z
0(
19
#2025000
0"
#2050000
1E
b111001001111011001101101110010 ^
b1 k
1a
1b
b11 l
b10 v
1w
b101 f
1n
1o
0=
07
0r
b110 e
1"
#2074000
18
b1100 s
14
0A
02
00
1)
1n
1o
b101 f
b10 k
b11 l
1w
b10 v
b1000001110010110 ^
1a
1b
0.
1J
1K
b1001100101001 $
15
1'
1,
0T
1+
b10111101100000100011101001111011 C
0B
1>
1#
1D
b1000001110010110 @
03
1V
b1111100100110110011011111111001 O
01
1*
1W
b10101110011110100101010001011100 L
09
#2075000
0"
#2100000
0E
b110 f
0n
1o
b0 k
b1 l
0w
b0 v
b0 ^
0a
0b
1=
17
0p
0m
1r
b101 e
1"
#2124000
08
04
0?
1]
1A
0[
1o
b110 f
0J
0K
b1011101110010 $
1&
05
b11 P
0,
1T
0!
0G
b11010011111011010100110010100111 C
1B
0U
b1100010010001101 @
0\
0I
b10110110101101010101000001101101 O
0W
b11000111011000100010011010001110 L
#2125000
0"
#2150000
1E
b10110110101101010101000001101101 ^
b1 k
1a
1b
b11 l
b10 v
1w
b101 f
1n
1o
0=
07
1p
1m
0r
b110 e
1"
#2174000
18
b1110 s
0]
0M
0A
0)
1n
1o
b101 f
b10 k
b11 l
1w
b10 v
b11111100110010101100000111 ^
1a
1b
1.
1J
1K
b101110100011101 $
0&
15
0'
0+
1G
b11111100110010101100000111 C
1U
0>
0D
b1000001101010100 @
b11010111001110110000010010101110 O
0F
1%
0*
b10001111101011001001111000011111 L
1Z
1(
19
0H
#2175000
0"
#2200000
0E
0n
0o
b0 k
b1 l
0w
b0 v
b0 ^
0a
0b
0p
0m
1r
b101 e
1"
#2224000
0R
08
0.
0J
0K
b100000111001111 $
b1 P
1,
0T
0N
1!
b11011000100101111111010010110001 C
0U
0#
1D
b1011100001000010 @
1\
0/
1I
13
b1110111000000010010111111101110 O
11
1W
b11100001001110010111101011000010 L
1H
#2225000
0"
#2250000
0r
1"
#2274000
1R
1]
18
1.
b110000011010011 $
1X
1Y
b0 P
1T
1N
0!
1+
b11100010010101011000001011000100 C
1U
1#
0D
b10001000001000 @
0\
1/
03
0V
b10001001100111100110101000010011 O
01
b10111000111110000011100001110001 L
#2275000
0"
#2300000
1z
1"
#2324000
17
0y
0w
b0 v
1=
1R
b1100 s
08
0]
10
1o
b110 f
b1001010110010 $
05
0X
0Y
b11 P
0,
0N
1!
0+
b10011101101101110111010000111011 C
0B
0U
1>
0#
b11110100111001 @
0/
0I
1V
b11011100110001110001010010111001 O
11
1F
0W
b10010101001001000001000000101010 L
#2325000
0"
#2350000
1E
b10011101101101110111010000111011 ^
b10 k
1a
1b
b11 l
b10 v
1w
b101 f
1n
1o
0=
07
1p
1m
0z
b110 e
1"
#2374000
1?
18
b1110 s
1M
12
1n
1o
b101 f
b10 k
b11 l
1w
b10 v
b1110111101101110010001111101111 ^
1a
1b
0.
1J
1K
b111100011100101 $
b10 P
0T
1N
b1110111101101110010001111101111 C
0>
b100000001011001 @
13
0V
b10000001011010010100011000000010 O
0%
1W
b1001011010000000000000110010110 L
0Z
0(
0H
#2375000
0"
#2400000
0E
b110 f
0n
1o
b0 k
b1 l
0w
b0 v
b0 ^
0a
0b
1=
17
0p
0m
1r
b101 e
1"
#2424000
07
0=
0?
0M
00
02
0o
b101 f
b110110001101101 $
1X
1Y
1'
1,
1T
0N
0!
1+
b1011110101111010101100010111 C
1U
1#
1D
b10111010001001 @
1\
1/
b11111010100010001110000011110101 O
01
0F
b10001110100101100010100100011 L
1Z
1(
#2425000
0"
#2450000
1z
1"
#2474000
17
1=
b1011 s
b101101110110 $
1&
15
0X
0Y
b1 P
0,
0T
1N
1!
b1111000000000011110100111110000 C
1B
1>
b1011111000101110 @
1I
1V
b11001101110110110111101010011011 O
11
1%
1*
0W
b111001111000101101011101110011 L
0Z
0(
#2475000
0"
#2500000
1p
1m
0z
1"
#2524000
b1101 s
1.
b10110111001000 $
05
1X
1Y
0'
b0 P
1T
0+
0G
b1100010001000000111100111000100 C
0D
b110111010100110 @
0/
0V
b11010010001001000111001010100100 O
01
0%
0*
b11010100001100100111011010101000 L
1Z
1(
09
1H
#2525000
0"
#2550000
1z
1"
#2574000
b1110 s
08
0.
0J
0K
b111000101000000 $
0X
0Y
0N
0!
1+
1G
b1011011110111011010100010110 C
0#
b111101101100100 @
0\
0I
03
1V
b1010111010100001110010110101110 O
1*
1W
b111110001110111001110101111100 L
19
0H
#2575000
0"
#2600000
0z
0r
1"
#2624000
18
b1101 s
10
1[
1)
1o
b110 f
1.
1J
1K
b11001011111100 $
1'
b11 P
1,
0T
0+
0G
b10001101110101011011110000011011 C
0B
0U
b1101111010001011 @
1\
1/
b100010100111010110100001000 O
11
1F
1%
b1010010111011000000100110100101 L
1H
#2625000
0"
#2650000
1E
b10001101110101011011110000011011 ^
b10 k
1a
1b
b11 l
b10 v
1w
b101 f
1n
1o
0=
07
1r
b110 e
1"
#2674000
b1011 s
0?
00
0[
0)
1n
1o
b101 f
b10 k
b11 l
1w
b10 v
b101011001100101 ^
1a
1b
0.
0J
0K
b111110000100 $
0&
1X
1Y
0'
b10 P
1N
1!
b11110010001100110100100111100 C
0>
1#
1D
b101011001100101 @
0\
0/
1I
13
b110110000010110011100001101 O
0F
0%
0*
0W
b10111011001000010011001001110110 L
09
#2675000
0"
#2700000
0E
0n
0o
b0 k
b1 l
0w
b0 v
b0 ^
0a
0b
0p
0m
1z
0r
b101 e
1"
#2724000
17
1?
1=
b1110 s
14
1[
1)
1o
b110 f
1J
1K
b110000110010100 $
15
0X
0Y
1'
0,
1T
0N
1G
b11110001110101110101100011100011 C
1>
0D
b101111011000000 @
1\
03
0V
b11110000001011000110111011100000 O
01
1F
1*
1W
b10011001111001000101100000110011 L
0H
#2725000
0"
#2750000
1E
b11110001110101110101100011100011 ^
b10 k
1a
1b
b11 l
b10 v
1w
b101 f
1n
1o
0=
07
1p
1m
0z
1r
b110 e
1"
#2774000
0?
1]
1M
10
0)
1n
1o
b101 f
b10 k
b11 l
1w
b10 v
b11001010100001 ^
1a
1b
0J
0K
b100010011010111 $
1X
1Y
b11 P
1N
1+
0G
b11111110111111110010100111111 C
1D
b11001010100001 @
1/
b1011101010000001101111110111010 O
11
0*
0W
b10010000011001100111011000100000 L
0Z
0(
1H
#2775000
0"
#2800000
0E
b110 f
0n
1o
b0 k
b1 l
0w
b0 v
b0 ^
0a
0b
1=
17
0p
0m
1z
0r
b101 e
1"
#2824000
07
0=
b1100 s
0?
0]
04
0M
00
0[
0o
b101 f
1.
1J
1K
b1011100101100 $
1&
b10 P
1,
0N
0+
b10011110001000010010101000111100 C
1U
0>
0D
b1100110001000010 @
0/
0I
b1000010101000001001011110000101 O
01
0F
1%
b11010101101111000100100010101011 L
1Z
1(
19
0H
#2825000
0"
#2850000
1r
1"
#2874000
17
1=
1?
b1110 s
1M
10
1[
1)
1o
b110 f
0J
0K
b111000011010010 $
05
0'
b0 P
0,
1N
1+
b110010101000100000011101100101 C
1>
0#
b1110101011100010 @
1I
1V
b1111011011111110010111111110110 O
11
1F
1*
1W
b11011110010110100100101010111100 L
0Z
0(
09
#2875000
0"
#2900000
1E
b110010101000100000011101100101 ^
b10 k
1a
1b
b11 l
b10 v
1w
b101 f
1n
1o
0=
07
1p
1m
0r
b110 e
1"
#2924000
0R
0?
b1101 s
08
0M
00
0[
0)
1n
1o
b101 f
b10 k
b11 l
1w
b10 v
b101101000111 ^
1a
1b
0.
b11001100001111 $
0&
15
0X
0Y
b1 P
0T
0N
0!
b11110111010010110001010011101110 C
0U
0>
1D
b101101000111 @
13
b11110101111111100000010011101011 O
01
0F
0*
b11001111010100001011011010011110 L
19
#2925000
0"
#2950000
0E
0n
0o
b0 k
b1 l
0w
b0 v
b0 ^
0a
0b
0p
0m
0z
b101 e
1"
