OtherToolsResult/harm/arb2/arb2.vcd
$version Generated by VerilatedVcd $end
$timescale 1ps $end

 $scope module top $end
  $var wire  1 # clk $end
  $var wire  1 ' gnt1 $end
  $var wire  1 ( gnt2 $end
  $var wire  1 % req1 $end
  $var wire  1 & req2 $end
  $var wire  1 $ rst $end
  $scope module arb2 $end
   $var wire  1 ) clk $end
   $var wire  1 - gnt1 $end
   $var wire  1 . gnt2 $end
   $var wire  1 + req1 $end
   $var wire  1 , req2 $end
   $var wire  1 * rst $end
   $var wire  1 / state $end
  $upscope $end
 $upscope $end
$enddefinitions $end


#0
1#
1$
0%
0&
0'
0(
1)
1*
0+
0,
0-
0.
0/
#1000
0#
0)
#2000
1#
0$
1)
0*
#3000
0#
0)
#4000
1#
1%
1'
1)
1+
1-
#5000
0#
0)
#6000
1#
0%
0'
1)
0+
0-
1/
#7000
0#
0)
#8000
1#
1)
0/
#9000
0#
0)
#10000
1#
1%
1'
1)
1+
1-
#11000
0#
0)
#12000
1#
0%
0'
1)
0+
0-
1/
#13000
0#
0)
#14000
1#
1)
0/
#15000
0#
0)
#16000
1#
1)
#17000
0#
0)
#18000
1#
1%
1'
1)
1+
1-
#19000
0#
0)
#20000
1#
1&
0'
1(
1)
1,
0-
1.
1/
#21000
0#
0)
#22000
1#
0%
0&
0(
1)
0+
0,
0.
0/
#23000
0#
0)
#24000
1#
1%
1&
1'
1)
1+
1,
1-
#25000
0#
0)
#26000
1#
0&
1)
0,
1/
#27000
0#
0)
#28000
1#
0%
1&
0'
1(
1)
0+
1,
0-
1.
#29000
0#
0)
#30000
1#
0&
0(
1)
0,
0.
0/
#31000
0#
0)
#32000
1#
1%
1'
1)
1+
1-
#33000
0#
0)
#34000
1#
1&
0'
1(
1)
1,
0-
1.
1/
#35000
0#
0)
#36000
1#
0&
1'
0(
1)
0,
1-
0.
0/
#37000
0#
0)
#38000
1#
1)
1/
#39000
0#
0)
#40000
1#
1)
#41000
0#
0)
#42000
1#
1&
0'
1(
1)
1,
0-
1.
#43000
0#
0)
#44000
1#
0%
0&
0(
1)
0+
0,
0.
0/
#45000
0#
0)
#46000
1#
1)
#47000
0#
0)
#48000
1#
1%
1'
1)
1+
1-
#49000
0#
0)
#50000
1#
0%
0'
1)
0+
0-
1/
#51000
0#
0)
#52000
1#
1%
1&
1'
1)
1+
1,
1-
0/
#53000
0#
0)
#54000
1#
0'
1(
1)
0-
1.
1/
#55000
0#
0)
#56000
1#
0%
1)
0+
0/
#57000
0#
0)
#58000
1#
1%
0&
1'
0(
1)
1+
0,
1-
0.
#59000
0#
0)
#60000
1#
1)
1/
